[api-updater (non-obsolete-error-filter)] 23/09/2021 11:21:34 : Starting C:/Program Files/Unity/2020.3.18f1/Editor/Data/Tools/ScriptUpdater/APIUpdater.NonObsoleteApiUpdaterDetector.exe
[api-updater (non-obsolete-error-filter)] 
----------------------------------
jit/startup time      : 738,7784ms
moved types parse time: 49ms
candidates parse time : 0ms
C# parse time         : 445ms
candidates check time : 25ms
console write time    : 0ms

[api-updater (non-obsolete-error-filter)] 24/09/2021 10:23:28 : Starting C:/Program Files/Unity/2020.3.18f1/Editor/Data/Tools/ScriptUpdater/APIUpdater.NonObsoleteApiUpdaterDetector.exe
[api-updater (non-obsolete-error-filter)] 
----------------------------------
jit/startup time      : 763,1664ms
moved types parse time: 44ms
candidates parse time : 1ms
C# parse time         : 204ms
candidates check time : 32ms
console write time    : 0ms

[api-updater (non-obsolete-error-filter)] 24/09/2021 10:23:42 : Starting C:/Program Files/Unity/2020.3.18f1/Editor/Data/Tools/ScriptUpdater/APIUpdater.NonObsoleteApiUpdaterDetector.exe
[api-updater (non-obsolete-error-filter)] 
----------------------------------
jit/startup time      : 57,4997ms
moved types parse time: 40ms
candidates parse time : 0ms
C# parse time         : 138ms
candidates check time : 30ms
console write time    : 0ms

[api-updater (non-obsolete-error-filter)] 24/09/2021 10:25:39 : Starting C:/Program Files/Unity/2020.3.18f1/Editor/Data/Tools/ScriptUpdater/APIUpdater.NonObsoleteApiUpdaterDetector.exe
[api-updater (non-obsolete-error-filter)] 
----------------------------------
jit/startup time      : 59,839ms
moved types parse time: 39ms
candidates parse time : 0ms
C# parse time         : 135ms
candidates check time : 31ms
console write time    : 0ms

[api-updater (non-obsolete-error-filter)] 24/09/2021 10:25:56 : Starting C:/Program Files/Unity/2020.3.18f1/Editor/Data/Tools/ScriptUpdater/APIUpdater.NonObsoleteApiUpdaterDetector.exe
[api-updater (non-obsolete-error-filter)] 
----------------------------------
jit/startup time      : 56,7532ms
moved types parse time: 40ms
candidates parse time : 0ms
C# parse time         : 139ms
candidates check time : 28ms
console write time    : 0ms

[api-updater (non-obsolete-error-filter)] 24/09/2021 10:26:25 : Starting C:/Program Files/Unity/2020.3.18f1/Editor/Data/Tools/ScriptUpdater/APIUpdater.NonObsoleteApiUpdaterDetector.exe
[api-updater (non-obsolete-error-filter)] 
----------------------------------
jit/startup time      : 55,8508ms
moved types parse time: 39ms
candidates parse time : 0ms
C# parse time         : 139ms
candidates check time : 28ms
console write time    : 0ms

[api-updater (non-obsolete-error-filter)] 24/09/2021 10:27:17 : Starting C:/Program Files/Unity/2020.3.18f1/Editor/Data/Tools/ScriptUpdater/APIUpdater.NonObsoleteApiUpdaterDetector.exe
[api-updater (non-obsolete-error-filter)] 
----------------------------------
jit/startup time      : 55,5072ms
moved types parse time: 42ms
candidates parse time : 0ms
C# parse time         : 134ms
candidates check time : 29ms
console write time    : 0ms

[api-updater (non-obsolete-error-filter)] 24/09/2021 13:33:46 : Starting C:/Program Files/Unity/2020.3.18f1/Editor/Data/Tools/ScriptUpdater/APIUpdater.NonObsoleteApiUpdaterDetector.exe
[api-updater (non-obsolete-error-filter)] 
----------------------------------
jit/startup time      : 332,4698ms
moved types parse time: 61ms
candidates parse time : 1ms
C# parse time         : 251ms
candidates check time : 44ms
console write time    : 1ms

[api-updater (non-obsolete-error-filter)] 24/09/2021 13:39:09 : Starting C:/Program Files/Unity/2020.3.18f1/Editor/Data/Tools/ScriptUpdater/APIUpdater.NonObsoleteApiUpdaterDetector.exe
[api-updater (non-obsolete-error-filter)] 
----------------------------------
jit/startup time      : 95,0215ms
moved types parse time: 66ms
candidates parse time : 1ms
C# parse time         : 292ms
candidates check time : 117ms
console write time    : 0ms

[api-updater (non-obsolete-error-filter)] 24/09/2021 13:42:15 : Starting C:/Program Files/Unity/2020.3.18f1/Editor/Data/Tools/ScriptUpdater/APIUpdater.NonObsoleteApiUpdaterDetector.exe
[api-updater (non-obsolete-error-filter)] 
----------------------------------
jit/startup time      : 93,7275ms
moved types parse time: 58ms
candidates parse time : 2ms
C# parse time         : 279ms
candidates check time : 98ms
console write time    : 0ms

[api-updater (non-obsolete-error-filter)] 24/09/2021 13:44:30 : Starting C:/Program Files/Unity/2020.3.18f1/Editor/Data/Tools/ScriptUpdater/APIUpdater.NonObsoleteApiUpdaterDetector.exe
[api-updater (non-obsolete-error-filter)] 
----------------------------------
jit/startup time      : 102,7258ms
moved types parse time: 67ms
candidates parse time : 1ms
C# parse time         : 309ms
candidates check time : 98ms
console write time    : 0ms

[api-updater (non-obsolete-error-filter)] 24/09/2021 13:44:56 : Starting C:/Program Files/Unity/2020.3.18f1/Editor/Data/Tools/ScriptUpdater/APIUpdater.NonObsoleteApiUpdaterDetector.exe
[api-updater (non-obsolete-error-filter)] 
----------------------------------
jit/startup time      : 93,7664ms
moved types parse time: 64ms
candidates parse time : 1ms
C# parse time         : 262ms
candidates check time : 93ms
console write time    : 0ms

[api-updater (non-obsolete-error-filter)] 24/09/2021 13:45:22 : Starting C:/Program Files/Unity/2020.3.18f1/Editor/Data/Tools/ScriptUpdater/APIUpdater.NonObsoleteApiUpdaterDetector.exe
[api-updater (non-obsolete-error-filter)] 
----------------------------------
jit/startup time      : 93,7611ms
moved types parse time: 54ms
candidates parse time : 1ms
C# parse time         : 278ms
candidates check time : 84ms
console write time    : 0ms

[api-updater (non-obsolete-error-filter)] 24/09/2021 13:46:44 : Starting C:/Program Files/Unity/2020.3.18f1/Editor/Data/Tools/ScriptUpdater/APIUpdater.NonObsoleteApiUpdaterDetector.exe
[api-updater (non-obsolete-error-filter)] 
----------------------------------
jit/startup time      : 93,7247ms
moved types parse time: 54ms
candidates parse time : 1ms
C# parse time         : 247ms
candidates check time : 80ms
console write time    : 0ms

[api-updater (non-obsolete-error-filter)] 24/09/2021 13:47:23 : Starting C:/Program Files/Unity/2020.3.18f1/Editor/Data/Tools/ScriptUpdater/APIUpdater.NonObsoleteApiUpdaterDetector.exe
[api-updater (non-obsolete-error-filter)] 
----------------------------------
jit/startup time      : 94,8459ms
moved types parse time: 53ms
candidates parse time : 1ms
C# parse time         : 220ms
candidates check time : 71ms
console write time    : 0ms

[api-updater (non-obsolete-error-filter)] 24/09/2021 13:48:58 : Starting C:/Program Files/Unity/2020.3.18f1/Editor/Data/Tools/ScriptUpdater/APIUpdater.NonObsoleteApiUpdaterDetector.exe
[api-updater (non-obsolete-error-filter)] 
----------------------------------
jit/startup time      : 94,916ms
moved types parse time: 58ms
candidates parse time : 1ms
C# parse time         : 225ms
candidates check time : 74ms
console write time    : 0ms

[api-updater (non-obsolete-error-filter)] 24/09/2021 13:52:58 : Starting C:/Program Files/Unity/2020.3.18f1/Editor/Data/Tools/ScriptUpdater/APIUpdater.NonObsoleteApiUpdaterDetector.exe
[api-updater (non-obsolete-error-filter)] 
----------------------------------
jit/startup time      : 107,7864ms
moved types parse time: 72ms
candidates parse time : 2ms
C# parse time         : 210ms
candidates check time : 40ms
console write time    : 0ms

[api-updater (non-obsolete-error-filter)] 24/09/2021 15:05:27 : Starting C:/Program Files/Unity/2020.3.18f1/Editor/Data/Tools/ScriptUpdater/APIUpdater.NonObsoleteApiUpdaterDetector.exe
[api-updater (non-obsolete-error-filter)] 
----------------------------------
jit/startup time      : 249,9091ms
moved types parse time: 96ms
candidates parse time : 2ms
C# parse time         : 294ms
candidates check time : 48ms
console write time    : 0ms

[api-updater (non-obsolete-error-filter)] 28/09/2021 18:38:35 : Starting C:/Program Files/Unity/2020.3.18f1/Editor/Data/Tools/ScriptUpdater/APIUpdater.NonObsoleteApiUpdaterDetector.exe
[api-updater (non-obsolete-error-filter)] 
----------------------------------
jit/startup time      : 1355,6502ms
moved types parse time: 111ms
candidates parse time : 2ms
C# parse time         : 418ms
candidates check time : 75ms
console write time    : 0ms

[api-updater (non-obsolete-error-filter)] 29/09/2021 10:09:46 : Starting C:/Program Files/Unity/2020.3.18f1/Editor/Data/Tools/ScriptUpdater/APIUpdater.NonObsoleteApiUpdaterDetector.exe
[api-updater (non-obsolete-error-filter)] 
----------------------------------
jit/startup time      : 112,6574ms
moved types parse time: 42ms
candidates parse time : 0ms
C# parse time         : 136ms
candidates check time : 23ms
console write time    : 0ms

[api-updater (non-obsolete-error-filter)] 29/09/2021 10:11:06 : Starting C:/Program Files/Unity/2020.3.18f1/Editor/Data/Tools/ScriptUpdater/APIUpdater.NonObsoleteApiUpdaterDetector.exe
[api-updater (non-obsolete-error-filter)] 
----------------------------------
jit/startup time      : 46,2472ms
moved types parse time: 40ms
candidates parse time : 1ms
C# parse time         : 134ms
candidates check time : 21ms
console write time    : 0ms

[api-updater (non-obsolete-error-filter)] 29/09/2021 10:11:23 : Starting C:/Program Files/Unity/2020.3.18f1/Editor/Data/Tools/ScriptUpdater/APIUpdater.NonObsoleteApiUpdaterDetector.exe
[api-updater (non-obsolete-error-filter)] 
----------------------------------
jit/startup time      : 62,5135ms
moved types parse time: 39ms
candidates parse time : 0ms
C# parse time         : 131ms
candidates check time : 22ms
console write time    : 0ms

[api-updater (non-obsolete-error-filter)] 29/09/2021 10:23:56 : Starting C:/Program Files/Unity/2020.3.18f1/Editor/Data/Tools/ScriptUpdater/APIUpdater.NonObsoleteApiUpdaterDetector.exe
[api-updater (non-obsolete-error-filter)] 
----------------------------------
jit/startup time      : 90,1513ms
moved types parse time: 55ms
candidates parse time : 1ms
C# parse time         : 246ms
candidates check time : 34ms
console write time    : 0ms

[api-updater (non-obsolete-error-filter)] 29/09/2021 10:51:52 : Starting C:/Program Files/Unity/2020.3.18f1/Editor/Data/Tools/ScriptUpdater/APIUpdater.NonObsoleteApiUpdaterDetector.exe
[api-updater (non-obsolete-error-filter)] 
----------------------------------
jit/startup time      : 93,7324ms
moved types parse time: 40ms
candidates parse time : 0ms
C# parse time         : 134ms
candidates check time : 23ms
console write time    : 0ms

[api-updater (non-obsolete-error-filter)] 29/09/2021 11:07:05 : Starting C:/Program Files/Unity/2020.3.18f1/Editor/Data/Tools/ScriptUpdater/APIUpdater.NonObsoleteApiUpdaterDetector.exe
[api-updater (non-obsolete-error-filter)] 
----------------------------------
jit/startup time      : 62,4834ms
moved types parse time: 41ms
candidates parse time : 0ms
C# parse time         : 141ms
candidates check time : 22ms
console write time    : 0ms

[api-updater (non-obsolete-error-filter)] 29/09/2021 14:04:49 : Starting C:/Program Files/Unity/2020.3.18f1/Editor/Data/Tools/ScriptUpdater/APIUpdater.NonObsoleteApiUpdaterDetector.exe
[api-updater (non-obsolete-error-filter)] 
----------------------------------
jit/startup time      : 171,8339ms
moved types parse time: 47ms
candidates parse time : 0ms
C# parse time         : 167ms
candidates check time : 25ms
console write time    : 0ms

[api-updater (non-obsolete-error-filter)] 29/09/2021 14:10:24 : Starting C:/Program Files/Unity/2020.3.18f1/Editor/Data/Tools/ScriptUpdater/APIUpdater.NonObsoleteApiUpdaterDetector.exe
[api-updater (non-obsolete-error-filter)] 
----------------------------------
jit/startup time      : 62,3174ms
moved types parse time: 43ms
candidates parse time : 0ms
C# parse time         : 138ms
candidates check time : 25ms
console write time    : 0ms

[api-updater (non-obsolete-error-filter)] 29/09/2021 14:24:01 : Starting C:/Program Files/Unity/2020.3.18f1/Editor/Data/Tools/ScriptUpdater/APIUpdater.NonObsoleteApiUpdaterDetector.exe
[api-updater (non-obsolete-error-filter)] 
----------------------------------
jit/startup time      : 55,5673ms
moved types parse time: 39ms
candidates parse time : 0ms
C# parse time         : 147ms
candidates check time : 24ms
console write time    : 0ms

[api-updater (non-obsolete-error-filter)] 29/09/2021 14:24:57 : Starting C:/Program Files/Unity/2020.3.18f1/Editor/Data/Tools/ScriptUpdater/APIUpdater.NonObsoleteApiUpdaterDetector.exe
[api-updater (non-obsolete-error-filter)] 
----------------------------------
jit/startup time      : 61,9383ms
moved types parse time: 44ms
candidates parse time : 0ms
C# parse time         : 149ms
candidates check time : 24ms
console write time    : 0ms

[api-updater (non-obsolete-error-filter)] 29/09/2021 15:11:21 : Starting C:/Program Files/Unity/2020.3.18f1/Editor/Data/Tools/ScriptUpdater/APIUpdater.NonObsoleteApiUpdaterDetector.exe
[api-updater (non-obsolete-error-filter)] 
----------------------------------
jit/startup time      : 117,3771ms
moved types parse time: 47ms
candidates parse time : 1ms
C# parse time         : 187ms
candidates check time : 31ms
console write time    : 0ms

[api-updater (non-obsolete-error-filter)] 29/09/2021 15:13:50 : Starting C:/Program Files/Unity/2020.3.18f1/Editor/Data/Tools/ScriptUpdater/APIUpdater.NonObsoleteApiUpdaterDetector.exe
[api-updater (non-obsolete-error-filter)] 
----------------------------------
jit/startup time      : 62,4541ms
moved types parse time: 43ms
candidates parse time : 1ms
C# parse time         : 151ms
candidates check time : 23ms
console write time    : 0ms

[api-updater (non-obsolete-error-filter)] 29/09/2021 15:15:29 : Starting C:/Program Files/Unity/2020.3.18f1/Editor/Data/Tools/ScriptUpdater/APIUpdater.NonObsoleteApiUpdaterDetector.exe
[api-updater (non-obsolete-error-filter)] 
----------------------------------
jit/startup time      : 62,5132ms
moved types parse time: 41ms
candidates parse time : 1ms
C# parse time         : 153ms
candidates check time : 26ms
console write time    : 0ms

[api-updater (non-obsolete-error-filter)] 29/09/2021 15:17:46 : Starting C:/Program Files/Unity/2020.3.18f1/Editor/Data/Tools/ScriptUpdater/APIUpdater.NonObsoleteApiUpdaterDetector.exe
[api-updater (non-obsolete-error-filter)] 
----------------------------------
jit/startup time      : 62,5148ms
moved types parse time: 40ms
candidates parse time : 1ms
C# parse time         : 151ms
candidates check time : 25ms
console write time    : 0ms

[api-updater (non-obsolete-error-filter)] 29/09/2021 15:22:02 : Starting C:/Program Files/Unity/2020.3.18f1/Editor/Data/Tools/ScriptUpdater/APIUpdater.NonObsoleteApiUpdaterDetector.exe
[api-updater (non-obsolete-error-filter)] 
----------------------------------
jit/startup time      : 59,6799ms
moved types parse time: 40ms
candidates parse time : 0ms
C# parse time         : 155ms
candidates check time : 25ms
console write time    : 0ms

[api-updater (non-obsolete-error-filter)] 29/09/2021 16:14:17 : Starting C:/Program Files/Unity/2020.3.18f1/Editor/Data/Tools/ScriptUpdater/APIUpdater.NonObsoleteApiUpdaterDetector.exe
[api-updater (non-obsolete-error-filter)] 
----------------------------------
jit/startup time      : 90,7348ms
moved types parse time: 43ms
candidates parse time : 1ms
C# parse time         : 156ms
candidates check time : 28ms
console write time    : 0ms

[api-updater (non-obsolete-error-filter)] 29/09/2021 16:53:02 : Starting C:/Program Files/Unity/2020.3.18f1/Editor/Data/Tools/ScriptUpdater/APIUpdater.NonObsoleteApiUpdaterDetector.exe
[api-updater (non-obsolete-error-filter)] 
----------------------------------
jit/startup time      : 566,0064ms
moved types parse time: 40ms
candidates parse time : 0ms
C# parse time         : 236ms
candidates check time : 28ms
console write time    : 0ms

[api-updater (non-obsolete-error-filter)] 29/09/2021 17:09:55 : Starting C:/Program Files/Unity/2020.3.18f1/Editor/Data/Tools/ScriptUpdater/APIUpdater.NonObsoleteApiUpdaterDetector.exe
[api-updater (non-obsolete-error-filter)] 
----------------------------------
jit/startup time      : 80,6255ms
moved types parse time: 42ms
candidates parse time : 0ms
C# parse time         : 175ms
candidates check time : 41ms
console write time    : 0ms

[api-updater (non-obsolete-error-filter)] 29/09/2021 17:14:08 : Starting C:/Program Files/Unity/2020.3.18f1/Editor/Data/Tools/ScriptUpdater/APIUpdater.NonObsoleteApiUpdaterDetector.exe
[api-updater (non-obsolete-error-filter)] 
----------------------------------
jit/startup time      : 62,4853ms
moved types parse time: 40ms
candidates parse time : 1ms
C# parse time         : 137ms
candidates check time : 43ms
console write time    : 0ms

[api-updater (non-obsolete-error-filter)] 29/09/2021 17:14:24 : Starting C:/Program Files/Unity/2020.3.18f1/Editor/Data/Tools/ScriptUpdater/APIUpdater.NonObsoleteApiUpdaterDetector.exe
[api-updater (non-obsolete-error-filter)] 
----------------------------------
jit/startup time      : 46,8916ms
moved types parse time: 39ms
candidates parse time : 1ms
C# parse time         : 137ms
candidates check time : 22ms
console write time    : 0ms

[api-updater (non-obsolete-error-filter)] 29/09/2021 17:14:52 : Starting C:/Program Files/Unity/2020.3.18f1/Editor/Data/Tools/ScriptUpdater/APIUpdater.NonObsoleteApiUpdaterDetector.exe
[api-updater (non-obsolete-error-filter)] 
----------------------------------
jit/startup time      : 62,4846ms
moved types parse time: 44ms
candidates parse time : 0ms
C# parse time         : 147ms
candidates check time : 23ms
console write time    : 0ms

[api-updater (non-obsolete-error-filter)] 29/09/2021 17:16:36 : Starting C:/Program Files/Unity/2020.3.18f1/Editor/Data/Tools/ScriptUpdater/APIUpdater.NonObsoleteApiUpdaterDetector.exe
[api-updater (non-obsolete-error-filter)] 
----------------------------------
jit/startup time      : 62,4871ms
moved types parse time: 44ms
candidates parse time : 1ms
C# parse time         : 143ms
candidates check time : 26ms
console write time    : 0ms

[api-updater (non-obsolete-error-filter)] 01/10/2021 09:27:02 : Starting C:/Program Files/Unity/2020.3.18f1/Editor/Data/Tools/ScriptUpdater/APIUpdater.NonObsoleteApiUpdaterDetector.exe
[api-updater (non-obsolete-error-filter)] 
----------------------------------
jit/startup time      : 629,292ms
moved types parse time: 44ms
candidates parse time : 1ms
C# parse time         : 197ms
candidates check time : 25ms
console write time    : 0ms

[api-updater (non-obsolete-error-filter)] 01/10/2021 09:28:48 : Starting C:/Program Files/Unity/2020.3.18f1/Editor/Data/Tools/ScriptUpdater/APIUpdater.NonObsoleteApiUpdaterDetector.exe
[api-updater (non-obsolete-error-filter)] 
----------------------------------
jit/startup time      : 56,4928ms
moved types parse time: 42ms
candidates parse time : 1ms
C# parse time         : 156ms
candidates check time : 24ms
console write time    : 0ms

[api-updater (non-obsolete-error-filter)] 01/10/2021 10:03:37 : Starting C:/Program Files/Unity/2020.3.18f1/Editor/Data/Tools/ScriptUpdater/APIUpdater.NonObsoleteApiUpdaterDetector.exe
[api-updater (non-obsolete-error-filter)] 
----------------------------------
jit/startup time      : 197,8935ms
moved types parse time: 44ms
candidates parse time : 0ms
C# parse time         : 189ms
candidates check time : 26ms
console write time    : 0ms

[api-updater (non-obsolete-error-filter)] 01/10/2021 11:34:34 : Starting C:/Program Files/Unity/2020.3.18f1/Editor/Data/Tools/ScriptUpdater/APIUpdater.NonObsoleteApiUpdaterDetector.exe
[api-updater (non-obsolete-error-filter)] 
----------------------------------
jit/startup time      : 75,1794ms
moved types parse time: 41ms
candidates parse time : 0ms
C# parse time         : 146ms
candidates check time : 32ms
console write time    : 0ms

[api-updater (non-obsolete-error-filter)] 01/10/2021 11:35:02 : Starting C:/Program Files/Unity/2020.3.18f1/Editor/Data/Tools/ScriptUpdater/APIUpdater.NonObsoleteApiUpdaterDetector.exe
[api-updater (non-obsolete-error-filter)] 
----------------------------------
jit/startup time      : 69,8755ms
moved types parse time: 41ms
candidates parse time : 0ms
C# parse time         : 134ms
candidates check time : 27ms
console write time    : 0ms

[api-updater (non-obsolete-error-filter)] 01/10/2021 11:35:07 : Starting C:/Program Files/Unity/2020.3.18f1/Editor/Data/Tools/ScriptUpdater/APIUpdater.NonObsoleteApiUpdaterDetector.exe
[api-updater (non-obsolete-error-filter)] 
----------------------------------
jit/startup time      : 59,8025ms
moved types parse time: 42ms
candidates parse time : 0ms
C# parse time         : 149ms
candidates check time : 26ms
console write time    : 0ms

[api-updater (non-obsolete-error-filter)] 01/10/2021 11:35:15 : Starting C:/Program Files/Unity/2020.3.18f1/Editor/Data/Tools/ScriptUpdater/APIUpdater.NonObsoleteApiUpdaterDetector.exe
[api-updater (non-obsolete-error-filter)] 
----------------------------------
jit/startup time      : 59,9999ms
moved types parse time: 41ms
candidates parse time : 0ms
C# parse time         : 145ms
candidates check time : 26ms
console write time    : 0ms

[api-updater (non-obsolete-error-filter)] 01/10/2021 11:35:29 : Starting C:/Program Files/Unity/2020.3.18f1/Editor/Data/Tools/ScriptUpdater/APIUpdater.NonObsoleteApiUpdaterDetector.exe
[api-updater (non-obsolete-error-filter)] 
----------------------------------
jit/startup time      : 57,4015ms
moved types parse time: 40ms
candidates parse time : 0ms
C# parse time         : 146ms
candidates check time : 25ms
console write time    : 0ms

[api-updater (non-obsolete-error-filter)] 01/10/2021 11:35:32 : Starting C:/Program Files/Unity/2020.3.18f1/Editor/Data/Tools/ScriptUpdater/APIUpdater.NonObsoleteApiUpdaterDetector.exe
[api-updater (non-obsolete-error-filter)] 
----------------------------------
jit/startup time      : 60,8692ms
moved types parse time: 42ms
candidates parse time : 0ms
C# parse time         : 143ms
candidates check time : 27ms
console write time    : 0ms

[api-updater (non-obsolete-error-filter)] 01/10/2021 11:35:41 : Starting C:/Program Files/Unity/2020.3.18f1/Editor/Data/Tools/ScriptUpdater/APIUpdater.NonObsoleteApiUpdaterDetector.exe
[api-updater (non-obsolete-error-filter)] 
----------------------------------
jit/startup time      : 59,6441ms
moved types parse time: 40ms
candidates parse time : 0ms
C# parse time         : 140ms
candidates check time : 27ms
console write time    : 0ms

[api-updater (non-obsolete-error-filter)] 01/10/2021 11:35:51 : Starting C:/Program Files/Unity/2020.3.18f1/Editor/Data/Tools/ScriptUpdater/APIUpdater.NonObsoleteApiUpdaterDetector.exe
[api-updater (non-obsolete-error-filter)] 
----------------------------------
jit/startup time      : 65,884ms
moved types parse time: 45ms
candidates parse time : 1ms
C# parse time         : 155ms
candidates check time : 23ms
console write time    : 0ms

[api-updater (non-obsolete-error-filter)] 01/10/2021 11:36:09 : Starting C:/Program Files/Unity/2020.3.18f1/Editor/Data/Tools/ScriptUpdater/APIUpdater.NonObsoleteApiUpdaterDetector.exe
[api-updater (non-obsolete-error-filter)] 
----------------------------------
jit/startup time      : 59,8458ms
moved types parse time: 41ms
candidates parse time : 0ms
C# parse time         : 144ms
candidates check time : 28ms
console write time    : 0ms

[api-updater (non-obsolete-error-filter)] 01/10/2021 11:39:46 : Starting C:/Program Files/Unity/2020.3.18f1/Editor/Data/Tools/ScriptUpdater/APIUpdater.NonObsoleteApiUpdaterDetector.exe
[api-updater (non-obsolete-error-filter)] 
----------------------------------
jit/startup time      : 57,5414ms
moved types parse time: 43ms
candidates parse time : 1ms
C# parse time         : 169ms
candidates check time : 29ms
console write time    : 0ms

[api-updater (non-obsolete-error-filter)] 01/10/2021 11:41:23 : Starting C:/Program Files/Unity/2020.3.18f1/Editor/Data/Tools/ScriptUpdater/APIUpdater.NonObsoleteApiUpdaterDetector.exe
[api-updater (non-obsolete-error-filter)] 
----------------------------------
jit/startup time      : 73,9599ms
moved types parse time: 46ms
candidates parse time : 0ms
C# parse time         : 160ms
candidates check time : 28ms
console write time    : 0ms

[api-updater (non-obsolete-error-filter)] 01/10/2021 11:44:19 : Starting C:/Program Files/Unity/2020.3.18f1/Editor/Data/Tools/ScriptUpdater/APIUpdater.NonObsoleteApiUpdaterDetector.exe
[api-updater (non-obsolete-error-filter)] 
----------------------------------
jit/startup time      : 63,8582ms
moved types parse time: 39ms
candidates parse time : 0ms
C# parse time         : 151ms
candidates check time : 25ms
console write time    : 0ms

[api-updater (non-obsolete-error-filter)] 01/10/2021 11:44:23 : Starting C:/Program Files/Unity/2020.3.18f1/Editor/Data/Tools/ScriptUpdater/APIUpdater.NonObsoleteApiUpdaterDetector.exe
[api-updater (non-obsolete-error-filter)] 
----------------------------------
jit/startup time      : 91,7566ms
moved types parse time: 44ms
candidates parse time : 0ms
C# parse time         : 153ms
candidates check time : 26ms
console write time    : 0ms

[api-updater (non-obsolete-error-filter)] 01/10/2021 11:55:41 : Starting C:/Program Files/Unity/2020.3.18f1/Editor/Data/Tools/ScriptUpdater/APIUpdater.NonObsoleteApiUpdaterDetector.exe
[api-updater (non-obsolete-error-filter)] 
----------------------------------
jit/startup time      : 65,5541ms
moved types parse time: 40ms
candidates parse time : 0ms
C# parse time         : 141ms
candidates check time : 26ms
console write time    : 0ms

[api-updater (non-obsolete-error-filter)] 01/10/2021 11:55:58 : Starting C:/Program Files/Unity/2020.3.18f1/Editor/Data/Tools/ScriptUpdater/APIUpdater.NonObsoleteApiUpdaterDetector.exe
[api-updater (non-obsolete-error-filter)] 
----------------------------------
jit/startup time      : 56,2905ms
moved types parse time: 40ms
candidates parse time : 1ms
C# parse time         : 157ms
candidates check time : 25ms
console write time    : 0ms

[api-updater (non-obsolete-error-filter)] 01/10/2021 14:12:07 : Starting C:/Program Files/Unity/2020.3.18f1/Editor/Data/Tools/ScriptUpdater/APIUpdater.NonObsoleteApiUpdaterDetector.exe
[api-updater (non-obsolete-error-filter)] 
----------------------------------
jit/startup time      : 369,2715ms
moved types parse time: 122ms
candidates parse time : 3ms
C# parse time         : 431ms
candidates check time : 68ms
console write time    : 1ms

[api-updater (non-obsolete-error-filter)] 01/10/2021 14:12:09 : Starting C:/Program Files/Unity/2020.3.18f1/Editor/Data/Tools/ScriptUpdater/APIUpdater.NonObsoleteApiUpdaterDetector.exe
[api-updater (non-obsolete-error-filter)] 
----------------------------------
jit/startup time      : 174,3669ms
moved types parse time: 120ms
candidates parse time : 3ms
C# parse time         : 381ms
candidates check time : 52ms
console write time    : 0ms

[api-updater (non-obsolete-error-filter)] 01/10/2021 14:12:24 : Starting C:/Program Files/Unity/2020.3.18f1/Editor/Data/Tools/ScriptUpdater/APIUpdater.NonObsoleteApiUpdaterDetector.exe
[api-updater (non-obsolete-error-filter)] 
----------------------------------
jit/startup time      : 190,1727ms
moved types parse time: 106ms
candidates parse time : 2ms
C# parse time         : 360ms
candidates check time : 60ms
console write time    : 0ms

[api-updater (non-obsolete-error-filter)] 01/10/2021 14:12:57 : Starting C:/Program Files/Unity/2020.3.18f1/Editor/Data/Tools/ScriptUpdater/APIUpdater.NonObsoleteApiUpdaterDetector.exe
[api-updater (non-obsolete-error-filter)] 
----------------------------------
jit/startup time      : 93,0557ms
moved types parse time: 61ms
candidates parse time : 1ms
C# parse time         : 211ms
candidates check time : 33ms
console write time    : 0ms

[api-updater (non-obsolete-error-filter)] 01/10/2021 15:45:05 : Starting C:/Program Files/Unity/2020.3.18f1/Editor/Data/Tools/ScriptUpdater/APIUpdater.NonObsoleteApiUpdaterDetector.exe
[api-updater (non-obsolete-error-filter)] 
----------------------------------
jit/startup time      : 208,2382ms
moved types parse time: 93ms
candidates parse time : 2ms
C# parse time         : 391ms
candidates check time : 67ms
console write time    : 1ms

[api-updater (non-obsolete-error-filter)] 01/10/2021 15:45:21 : Starting C:/Program Files/Unity/2020.3.18f1/Editor/Data/Tools/ScriptUpdater/APIUpdater.NonObsoleteApiUpdaterDetector.exe
[api-updater (non-obsolete-error-filter)] 
----------------------------------
jit/startup time      : 160,8132ms
moved types parse time: 145ms
candidates parse time : 3ms
C# parse time         : 404ms
candidates check time : 64ms
console write time    : 0ms

[api-updater (non-obsolete-error-filter)] 01/10/2021 17:09:15 : Starting C:/Program Files/Unity/2020.3.18f1/Editor/Data/Tools/ScriptUpdater/APIUpdater.NonObsoleteApiUpdaterDetector.exe
[api-updater (non-obsolete-error-filter)] 
----------------------------------
jit/startup time      : 62,4854ms
moved types parse time: 39ms
candidates parse time : 0ms
C# parse time         : 126ms
candidates check time : 22ms
console write time    : 0ms

[api-updater (non-obsolete-error-filter)] 05/10/2021 16:14:37 : Starting C:/Program Files/Unity/2020.3.18f1/Editor/Data/Tools/ScriptUpdater/APIUpdater.NonObsoleteApiUpdaterDetector.exe
[api-updater (non-obsolete-error-filter)] 
----------------------------------
jit/startup time      : 751,2905ms
moved types parse time: 49ms
candidates parse time : 1ms
C# parse time         : 206ms
candidates check time : 26ms
console write time    : 0ms

[api-updater (non-obsolete-error-filter)] 05/10/2021 16:21:01 : Starting C:/Program Files/Unity/2020.3.18f1/Editor/Data/Tools/ScriptUpdater/APIUpdater.NonObsoleteApiUpdaterDetector.exe
[api-updater (non-obsolete-error-filter)] 
----------------------------------
jit/startup time      : 60,7612ms
moved types parse time: 42ms
candidates parse time : 0ms
C# parse time         : 141ms
candidates check time : 22ms
console write time    : 0ms

[api-updater (non-obsolete-error-filter)] 08/10/2021 18:31:52 : Starting C:/Program Files/Unity/2020.3.18f1/Editor/Data/Tools/ScriptUpdater/APIUpdater.NonObsoleteApiUpdaterDetector.exe
[api-updater (non-obsolete-error-filter)] 
----------------------------------
jit/startup time      : 847,5572ms
moved types parse time: 59ms
candidates parse time : 1ms
C# parse time         : 276ms
candidates check time : 66ms
console write time    : 1ms

[api-updater (non-obsolete-error-filter)] 18/12/2021 10:22:36 : Starting C:/Program Files/Unity/2020.3.18f1/Editor/Data/Tools/ScriptUpdater/APIUpdater.NonObsoleteApiUpdaterDetector.exe
[api-updater (non-obsolete-error-filter)] 
----------------------------------
jit/startup time      : 612,1752ms
moved types parse time: 46ms
candidates parse time : 0ms
C# parse time         : 232ms
candidates check time : 29ms
console write time    : 0ms

[api-updater (non-obsolete-error-filter)] 18/12/2021 10:23:06 : Starting C:/Program Files/Unity/2020.3.18f1/Editor/Data/Tools/ScriptUpdater/APIUpdater.NonObsoleteApiUpdaterDetector.exe
[api-updater (non-obsolete-error-filter)] 
----------------------------------
jit/startup time      : 54,4135ms
moved types parse time: 40ms
candidates parse time : 0ms
C# parse time         : 148ms
candidates check time : 26ms
console write time    : 0ms

